Lesson 5: dplyr + tidyr
…
         age_above_18 = age >=18,  # האם הנבדק מעל גיל 18
        # ******************************************
         gender = recode(gender, "male" = "M", "female" = "F"), # דריסת עמודת המגדר וקידודה מחדש 
                     # פונקציה זו מאפשר לנו לקודד מחדש עמודות עם מספר רמות - להחליף את הערכים המייצגים קבוצות שונות 
         
         )
# שימו לב לסוגריים - כל העמודות שיצרנו בוכנסו בתוך פונקצייה אחת, בה הפרדנו את ההתייחסות לכל עמודה בפסיקים.
# ירידת השורה בין עמודה לעמודה נועדה כדי לשמור על הסדר ואינה נדרשת בשביל תקינות הקוד

print(mutated_table)

## # A tibble: 2,466 × 15
##    session_id   age gender attention_check nfc_01 nfc_02r nfc_03r nfc_04 nfc_05
##         <dbl> <dbl> <chr>            <dbl>  <dbl>   <dbl>   <dbl>  <dbl>  <dbl>
##  1    7385046    19 F                    1      3       4       4      3      2
##  2    7385155    18 F                    1      1       2       5      1      3
##  3    7391990    18 F                    1      5       5       1      5      5
##  4    7392153    18 F                    0      4       4       4      1      1
##  5    7392233    18 F                    1      2       2       2      3      4
##  6    7392698    24 M                    0      4       3       4      2      3
##  7    7392875    18 F                    1      4       1       2      5      4
##  8    7397218    19 M                    1      2       4       3      2      3
##  9    7397377    20 F                    0      3       2       4      3      3
## 10    7397497    18 F                    1      3       2       4      3      4
## # ℹ 2,456 more rows
## # ℹ 6 more variables: nfc_06r <dbl>, nfc_02 <dbl>, nfc_03 <dbl>, nfc_06 <dbl>,
## #   nfc <dbl>, age_above_18 <lgl>
…
